EESchema Schematic File Version 4
EELAYER 30 0
EELAYER END
$Descr A4 11693 8268
encoding utf-8
Sheet 1 1
Title ""
Date ""
Rev ""
Comp ""
Comment1 ""
Comment2 ""
Comment3 ""
Comment4 ""
$EndDescr
$Comp
L MCU_Microchip_ATmega:ATmega328P-PU U1
U 1 1 628B7DC8
P 4900 3150
F 0 "U1" H 4256 3196 50  0000 R CNN
F 1 "ATmega328P-PU" H 4256 3105 50  0000 R CNN
F 2 "Package_DIP:DIP-28_W7.62mm" H 4900 3150 50  0001 C CIN
F 3 "http://ww1.microchip.com/downloads/en/DeviceDoc/ATmega328_P%20AVR%20MCU%20with%20picoPower%20Technology%20Data%20Sheet%2040001984A.pdf" H 4900 3150 50  0001 C CNN
	1    4900 3150
	1    0    0    -1  
$EndComp
Wire Wire Line
	5500 3650 5700 3650
Wire Wire Line
	5700 3750 5500 3750
Wire Wire Line
	5000 1650 4900 1650
$Comp
L power:+5V #PWR0101
U 1 1 628BD466
P 4900 1250
F 0 "#PWR0101" H 4900 1100 50  0001 C CNN
F 1 "+5V" H 4915 1423 50  0000 C CNN
F 2 "" H 4900 1250 50  0001 C CNN
F 3 "" H 4900 1250 50  0001 C CNN
	1    4900 1250
	1    0    0    -1  
$EndComp
Wire Wire Line
	4900 1650 4900 1400
Connection ~ 4900 1650
$Comp
L power:GND #PWR0102
U 1 1 628BE5EC
P 4900 4900
F 0 "#PWR0102" H 4900 4650 50  0001 C CNN
F 1 "GND" H 4905 4727 50  0000 C CNN
F 2 "" H 4900 4900 50  0001 C CNN
F 3 "" H 4900 4900 50  0001 C CNN
	1    4900 4900
	1    0    0    -1  
$EndComp
Wire Wire Line
	4900 4650 4900 4900
$Comp
L Device:CP C1
U 1 1 628C163E
P 1150 1500
F 0 "C1" H 1268 1546 50  0000 L CNN
F 1 "100yF" H 1268 1455 50  0000 L CNN
F 2 "Capacitor_THT:CP_Radial_D6.3mm_P2.50mm" H 1188 1350 50  0001 C CNN
F 3 "~" H 1150 1500 50  0001 C CNN
	1    1150 1500
	1    0    0    -1  
$EndComp
$Comp
L power:GND #PWR0103
U 1 1 628C2289
P 1150 1650
F 0 "#PWR0103" H 1150 1400 50  0001 C CNN
F 1 "GND" H 1155 1477 50  0000 C CNN
F 2 "" H 1150 1650 50  0001 C CNN
F 3 "" H 1150 1650 50  0001 C CNN
	1    1150 1650
	1    0    0    -1  
$EndComp
$Comp
L power:+5V #PWR0104
U 1 1 628C2650
P 1150 1350
F 0 "#PWR0104" H 1150 1200 50  0001 C CNN
F 1 "+5V" H 1165 1523 50  0000 C CNN
F 2 "" H 1150 1350 50  0001 C CNN
F 3 "" H 1150 1350 50  0001 C CNN
	1    1150 1350
	1    0    0    -1  
$EndComp
$Comp
L power:+12V #PWR0105
U 1 1 628C4B11
P 1900 1350
F 0 "#PWR0105" H 1900 1200 50  0001 C CNN
F 1 "+12V" H 1915 1523 50  0000 C CNN
F 2 "" H 1900 1350 50  0001 C CNN
F 3 "" H 1900 1350 50  0001 C CNN
	1    1900 1350
	1    0    0    -1  
$EndComp
$Comp
L Device:CP C2
U 1 1 628C5AA8
P 1900 1500
F 0 "C2" H 2018 1546 50  0000 L CNN
F 1 "100yF" H 2018 1455 50  0000 L CNN
F 2 "Capacitor_THT:CP_Radial_D6.3mm_P2.50mm" H 1938 1350 50  0001 C CNN
F 3 "~" H 1900 1500 50  0001 C CNN
	1    1900 1500
	1    0    0    -1  
$EndComp
$Comp
L power:GND #PWR0106
U 1 1 628C5AAE
P 1900 1650
F 0 "#PWR0106" H 1900 1400 50  0001 C CNN
F 1 "GND" H 1905 1477 50  0000 C CNN
F 2 "" H 1900 1650 50  0001 C CNN
F 3 "" H 1900 1650 50  0001 C CNN
	1    1900 1650
	1    0    0    -1  
$EndComp
Text Label 5700 2550 0    50   ~ 0
Crystal1
Text Label 5700 2650 0    50   ~ 0
Crystal2
Wire Wire Line
	5500 2550 5700 2550
Wire Wire Line
	5700 2650 5500 2650
$Comp
L Device:C C6
U 1 1 628C930F
P 10300 2650
F 0 "C6" V 10552 2650 50  0000 C CNN
F 1 "22pF" V 10461 2650 50  0000 C CNN
F 2 "Capacitor_THT:C_Disc_D3.4mm_W2.1mm_P2.50mm" H 10338 2500 50  0001 C CNN
F 3 "~" H 10300 2650 50  0001 C CNN
	1    10300 2650
	0    -1   -1   0   
$EndComp
$Comp
L Device:C C5
U 1 1 628C9C5E
P 10300 2150
F 0 "C5" V 10552 2150 50  0000 C CNN
F 1 "22pF" V 10461 2150 50  0000 C CNN
F 2 "Capacitor_THT:C_Disc_D3.4mm_W2.1mm_P2.50mm" H 10338 2000 50  0001 C CNN
F 3 "~" H 10300 2150 50  0001 C CNN
	1    10300 2150
	0    -1   -1   0   
$EndComp
$Comp
L Device:Crystal Y1
U 1 1 628CA555
P 9850 2400
F 0 "Y1" H 9900 2700 50  0000 R CNN
F 1 "16Mhz" H 9950 2600 50  0000 R CNN
F 2 "Crystal:Crystal_HC49-U_Vertical" H 9850 2400 50  0001 C CNN
F 3 "~" H 9850 2400 50  0001 C CNN
	1    9850 2400
	0    -1   -1   0   
$EndComp
Wire Wire Line
	10450 2150 10550 2150
Wire Wire Line
	10550 2150 10550 2400
Wire Wire Line
	10550 2650 10450 2650
$Comp
L power:GND #PWR0107
U 1 1 628D6731
P 10550 2400
F 0 "#PWR0107" H 10550 2150 50  0001 C CNN
F 1 "GND" V 10555 2272 50  0000 R CNN
F 2 "" H 10550 2400 50  0001 C CNN
F 3 "" H 10550 2400 50  0001 C CNN
	1    10550 2400
	0    -1   -1   0   
$EndComp
Connection ~ 10550 2400
Wire Wire Line
	10550 2400 10550 2650
Wire Wire Line
	10150 2150 9850 2150
Wire Wire Line
	9850 2150 9850 2250
Wire Wire Line
	9850 2550 9850 2650
Wire Wire Line
	9850 2650 10150 2650
Text Label 9700 2150 2    50   ~ 0
Crystal1
Text Label 9700 2650 2    50   ~ 0
Crystal2
Wire Wire Line
	9700 2650 9850 2650
Connection ~ 9850 2650
Wire Wire Line
	9850 2150 9700 2150
Connection ~ 9850 2150
Text Label 7600 2450 0    50   ~ 0
Reset
$Comp
L Device:R R5
U 1 1 628E6DC7
P 9500 3550
F 0 "R5" H 9570 3596 50  0000 L CNN
F 1 "10K" H 9570 3505 50  0000 L CNN
F 2 "Resistor_THT:R_Axial_DIN0207_L6.3mm_D2.5mm_P7.62mm_Horizontal" V 9430 3550 50  0001 C CNN
F 3 "~" H 9500 3550 50  0001 C CNN
	1    9500 3550
	1    0    0    -1  
$EndComp
$Comp
L power:+5V #PWR0108
U 1 1 628EB8F4
P 9500 3400
F 0 "#PWR0108" H 9500 3250 50  0001 C CNN
F 1 "+5V" H 9515 3573 50  0000 C CNN
F 2 "" H 9500 3400 50  0001 C CNN
F 3 "" H 9500 3400 50  0001 C CNN
	1    9500 3400
	1    0    0    -1  
$EndComp
$Comp
L power:GND #PWR0109
U 1 1 628F10AF
P 10550 3800
F 0 "#PWR0109" H 10550 3550 50  0001 C CNN
F 1 "GND" H 10555 3627 50  0000 C CNN
F 2 "" H 10550 3800 50  0001 C CNN
F 3 "" H 10550 3800 50  0001 C CNN
	1    10550 3800
	1    0    0    -1  
$EndComp
Wire Wire Line
	10300 3800 10550 3800
Text Label 9200 3800 2    50   ~ 0
Reset
Wire Wire Line
	9200 3800 9500 3800
Wire Wire Line
	9500 3700 9500 3800
Connection ~ 9500 3800
Wire Wire Line
	9500 3800 9900 3800
$Comp
L Device:Q_NJFET_GDS Q2
U 1 1 628FDD91
P 9200 5500
F 0 "Q2" H 9391 5546 50  0000 L CNN
F 1 "LR2905" H 9391 5455 50  0000 L CNN
F 2 "Package_TO_SOT_SMD:TO-252-2" H 9400 5600 50  0001 C CNN
F 3 "~" H 9200 5500 50  0001 C CNN
	1    9200 5500
	1    0    0    -1  
$EndComp
$Comp
L Device:R R4
U 1 1 629059A6
P 8750 5650
F 0 "R4" H 8820 5696 50  0000 L CNN
F 1 "100K" H 8820 5605 50  0000 L CNN
F 2 "Resistor_THT:R_Axial_DIN0207_L6.3mm_D2.5mm_P7.62mm_Horizontal" V 8680 5650 50  0001 C CNN
F 3 "~" H 8750 5650 50  0001 C CNN
	1    8750 5650
	1    0    0    -1  
$EndComp
$Comp
L Device:R R3
U 1 1 629069F9
P 8000 5500
F 0 "R3" V 8207 5500 50  0000 C CNN
F 1 "100R" V 8116 5500 50  0000 C CNN
F 2 "Resistor_THT:R_Axial_DIN0207_L6.3mm_D2.5mm_P7.62mm_Horizontal" V 7930 5500 50  0001 C CNN
F 3 "~" H 8000 5500 50  0001 C CNN
	1    8000 5500
	0    -1   -1   0   
$EndComp
Wire Wire Line
	9000 5500 8750 5500
Connection ~ 8750 5500
Wire Wire Line
	8750 5500 8150 5500
$Comp
L power:GND #PWR0110
U 1 1 629076B6
P 8750 5900
F 0 "#PWR0110" H 8750 5650 50  0001 C CNN
F 1 "GND" H 8755 5727 50  0000 C CNN
F 2 "" H 8750 5900 50  0001 C CNN
F 3 "" H 8750 5900 50  0001 C CNN
	1    8750 5900
	1    0    0    -1  
$EndComp
Wire Wire Line
	8750 5800 8750 5850
Wire Wire Line
	9300 5700 9300 5850
Wire Wire Line
	9300 5850 8750 5850
Connection ~ 8750 5850
Wire Wire Line
	8750 5850 8750 5900
$Comp
L Device:L L2
U 1 1 62909E53
P 9600 4800
F 0 "L2" V 9790 4800 50  0000 C CNN
F 1 "1.6mH" V 9699 4800 50  0000 C CNN
F 2 "Inductor_THT:L_Radial_D12.0mm_P5.00mm_Fastron_11P" H 9600 4800 50  0001 C CNN
F 3 "~" H 9600 4800 50  0001 C CNN
	1    9600 4800
	0    -1   -1   0   
$EndComp
$Comp
L Device:CP C4
U 1 1 6290ACDC
P 9850 4950
F 0 "C4" H 9968 4996 50  0000 L CNN
F 1 "4.7yF" H 9968 4905 50  0000 L CNN
F 2 "Capacitor_THT:CP_Radial_D4.0mm_P2.00mm" H 9888 4800 50  0001 C CNN
F 3 "~" H 9850 4950 50  0001 C CNN
	1    9850 4950
	1    0    0    -1  
$EndComp
$Comp
L Device:D D2
U 1 1 6290B05E
P 9300 4950
F 0 "D2" V 9254 5030 50  0000 L CNN
F 1 "1N5393" V 9345 5030 50  0000 L CNN
F 2 "Diode_THT:D_A-405_P7.62mm_Horizontal" H 9300 4950 50  0001 C CNN
F 3 "~" H 9300 4950 50  0001 C CNN
	1    9300 4950
	0    1    1    0   
$EndComp
Wire Wire Line
	9300 4800 9450 4800
Wire Wire Line
	9750 4800 9850 4800
Wire Wire Line
	9850 5100 9300 5100
Wire Wire Line
	9300 5100 9300 5300
Connection ~ 9300 5100
$Comp
L Connector:Screw_Terminal_01x02 J7
U 1 1 62912043
P 10800 4900
F 0 "J7" H 10880 4892 50  0000 L CNN
F 1 "Fan1" H 10880 4801 50  0000 L CNN
F 2 "TerminalBlock:TerminalBlock_Altech_AK300-2_P5.00mm" H 10800 4900 50  0001 C CNN
F 3 "~" H 10800 4900 50  0001 C CNN
	1    10800 4900
	1    0    0    -1  
$EndComp
Wire Wire Line
	9850 4800 10600 4800
Wire Wire Line
	10600 4800 10600 4900
Connection ~ 9850 4800
Wire Wire Line
	9850 5100 10600 5100
Wire Wire Line
	10600 5100 10600 5000
Connection ~ 9850 5100
Text Label 7550 5500 2    50   ~ 0
Fan1_PWM
Wire Wire Line
	7850 5500 7550 5500
$Comp
L Device:Q_NJFET_GDS Q1
U 1 1 6291C70F
P 4800 6800
F 0 "Q1" H 4991 6846 50  0000 L CNN
F 1 "LR2905" H 4991 6755 50  0000 L CNN
F 2 "Package_TO_SOT_SMD:TO-252-2" H 5000 6900 50  0001 C CNN
F 3 "~" H 4800 6800 50  0001 C CNN
	1    4800 6800
	1    0    0    -1  
$EndComp
$Comp
L Device:R R2
U 1 1 6291C715
P 4350 6950
F 0 "R2" H 4420 6996 50  0000 L CNN
F 1 "100K" H 4420 6905 50  0000 L CNN
F 2 "Resistor_THT:R_Axial_DIN0207_L6.3mm_D2.5mm_P7.62mm_Horizontal" V 4280 6950 50  0001 C CNN
F 3 "~" H 4350 6950 50  0001 C CNN
	1    4350 6950
	1    0    0    -1  
$EndComp
$Comp
L Device:R R1
U 1 1 6291C71B
P 3600 6800
F 0 "R1" V 3807 6800 50  0000 C CNN
F 1 "100R" V 3716 6800 50  0000 C CNN
F 2 "Resistor_THT:R_Axial_DIN0207_L6.3mm_D2.5mm_P7.62mm_Horizontal" V 3530 6800 50  0001 C CNN
F 3 "~" H 3600 6800 50  0001 C CNN
	1    3600 6800
	0    -1   -1   0   
$EndComp
Wire Wire Line
	4600 6800 4350 6800
Connection ~ 4350 6800
Wire Wire Line
	4350 6800 3750 6800
$Comp
L power:GND #PWR0111
U 1 1 6291C724
P 4350 7200
F 0 "#PWR0111" H 4350 6950 50  0001 C CNN
F 1 "GND" H 4355 7027 50  0000 C CNN
F 2 "" H 4350 7200 50  0001 C CNN
F 3 "" H 4350 7200 50  0001 C CNN
	1    4350 7200
	1    0    0    -1  
$EndComp
Wire Wire Line
	4350 7100 4350 7150
Wire Wire Line
	4900 7000 4900 7150
Wire Wire Line
	4900 7150 4350 7150
Connection ~ 4350 7150
Wire Wire Line
	4350 7150 4350 7200
$Comp
L Device:L L1
U 1 1 6291C72F
P 5200 6100
F 0 "L1" V 5390 6100 50  0000 C CNN
F 1 "1.6mH" V 5299 6100 50  0000 C CNN
F 2 "Inductor_THT:L_Radial_D12.0mm_P5.00mm_Fastron_11P" H 5200 6100 50  0001 C CNN
F 3 "~" H 5200 6100 50  0001 C CNN
	1    5200 6100
	0    -1   -1   0   
$EndComp
$Comp
L Device:CP C3
U 1 1 6291C735
P 5450 6250
F 0 "C3" H 5568 6296 50  0000 L CNN
F 1 "4.7yF" H 5568 6205 50  0000 L CNN
F 2 "Capacitor_THT:CP_Radial_D4.0mm_P2.00mm" H 5488 6100 50  0001 C CNN
F 3 "~" H 5450 6250 50  0001 C CNN
	1    5450 6250
	1    0    0    -1  
$EndComp
$Comp
L Device:D D1
U 1 1 6291C73B
P 4900 6250
F 0 "D1" V 4854 6330 50  0000 L CNN
F 1 "1N5393" V 4945 6330 50  0000 L CNN
F 2 "Diode_THT:D_A-405_P7.62mm_Horizontal" H 4900 6250 50  0001 C CNN
F 3 "~" H 4900 6250 50  0001 C CNN
	1    4900 6250
	0    1    1    0   
$EndComp
Wire Wire Line
	4900 6100 5050 6100
Wire Wire Line
	5350 6100 5450 6100
Wire Wire Line
	5450 6400 4900 6400
Wire Wire Line
	4900 6400 4900 6600
Connection ~ 4900 6400
$Comp
L Connector:Screw_Terminal_01x02 J3
U 1 1 6291C746
P 6400 6200
F 0 "J3" H 6480 6192 50  0000 L CNN
F 1 "Fan2" H 6480 6101 50  0000 L CNN
F 2 "TerminalBlock:TerminalBlock_Altech_AK300-2_P5.00mm" H 6400 6200 50  0001 C CNN
F 3 "~" H 6400 6200 50  0001 C CNN
	1    6400 6200
	1    0    0    -1  
$EndComp
Wire Wire Line
	5450 6100 6200 6100
Wire Wire Line
	6200 6100 6200 6200
Connection ~ 5450 6100
Wire Wire Line
	5450 6400 6200 6400
Wire Wire Line
	6200 6400 6200 6300
Connection ~ 5450 6400
Text Label 3150 6800 2    50   ~ 0
Fan2_PWM
Wire Wire Line
	3450 6800 3150 6800
Text Label 5750 2050 0    50   ~ 0
Fan1_PWM
Text Label 5750 2150 0    50   ~ 0
Fan2_PWM
Wire Wire Line
	5750 2050 5500 2050
Wire Wire Line
	5500 2150 5750 2150
$Comp
L Connector:Conn_01x02_Male J2
U 1 1 6294E396
P 5900 3750
F 0 "J2" H 5872 3632 50  0000 R CNN
F 1 "UART" H 5872 3723 50  0000 R CNN
F 2 "Connector_PinHeader_2.54mm:PinHeader_1x02_P2.54mm_Vertical" H 5900 3750 50  0001 C CNN
F 3 "~" H 5900 3750 50  0001 C CNN
	1    5900 3750
	-1   0    0    1   
$EndComp
$Comp
L Connector:Conn_01x04_Male J6
U 1 1 6295E287
P 10100 1000
F 0 "J6" H 10208 1281 50  0000 C CNN
F 1 "Switches" H 10208 1190 50  0000 C CNN
F 2 "Connector_PinHeader_2.54mm:PinHeader_1x04_P2.54mm_Vertical" H 10100 1000 50  0001 C CNN
F 3 "~" H 10100 1000 50  0001 C CNN
	1    10100 1000
	-1   0    0    1   
$EndComp
Text Label 9450 800  2    50   ~ 0
Sw1
Text Label 9450 1000 2    50   ~ 0
Sw2
Wire Wire Line
	9900 1000 9450 1000
$Comp
L power:GND #PWR0112
U 1 1 629635ED
P 9650 1200
F 0 "#PWR0112" H 9650 950 50  0001 C CNN
F 1 "GND" H 9655 1027 50  0000 C CNN
F 2 "" H 9650 1200 50  0001 C CNN
F 3 "" H 9650 1200 50  0001 C CNN
	1    9650 1200
	1    0    0    -1  
$EndComp
Wire Wire Line
	9650 1200 9650 1100
Wire Wire Line
	9650 900  9900 900 
Wire Wire Line
	9900 1100 9650 1100
Connection ~ 9650 1100
Wire Wire Line
	9650 1100 9650 900 
Text Label 5900 3850 0    50   ~ 0
Sw1
Text Label 5900 3950 0    50   ~ 0
Sw2
Wire Wire Line
	5900 3850 5500 3850
Wire Wire Line
	5500 3950 5900 3950
$Comp
L power:+12V #PWR0113
U 1 1 6298605E
P 9300 4400
F 0 "#PWR0113" H 9300 4250 50  0001 C CNN
F 1 "+12V" H 9315 4573 50  0000 C CNN
F 2 "" H 9300 4400 50  0001 C CNN
F 3 "" H 9300 4400 50  0001 C CNN
	1    9300 4400
	1    0    0    -1  
$EndComp
Wire Wire Line
	9300 4400 9300 4800
Connection ~ 9300 4800
$Comp
L power:+12V #PWR0114
U 1 1 6298B2E2
P 4900 5700
F 0 "#PWR0114" H 4900 5550 50  0001 C CNN
F 1 "+12V" H 4915 5873 50  0000 C CNN
F 2 "" H 4900 5700 50  0001 C CNN
F 3 "" H 4900 5700 50  0001 C CNN
	1    4900 5700
	1    0    0    -1  
$EndComp
Wire Wire Line
	4900 5700 4900 6100
$Comp
L Connector_Generic:Conn_02x03_Counter_Clockwise J4
U 1 1 62994AC2
P 7050 2350
F 0 "J4" H 7100 2667 50  0000 C CNN
F 1 "ICSP" H 7100 2576 50  0000 C CNN
F 2 "Connector_PinHeader_2.54mm:PinHeader_2x03_P2.54mm_Vertical" H 7050 2350 50  0001 C CNN
F 3 "~" H 7050 2350 50  0001 C CNN
	1    7050 2350
	1    0    0    -1  
$EndComp
Wire Wire Line
	5500 2250 6850 2250
Wire Wire Line
	5500 2450 6850 2450
Wire Wire Line
	5500 2350 6850 2350
Wire Wire Line
	7600 2450 7450 2450
Wire Wire Line
	7450 3450 7450 2450
Connection ~ 7450 2450
Wire Wire Line
	7450 2450 7350 2450
Wire Wire Line
	5500 3450 7450 3450
$Comp
L power:+5V #PWR0115
U 1 1 629B2EC1
P 7350 1850
F 0 "#PWR0115" H 7350 1700 50  0001 C CNN
F 1 "+5V" H 7365 2023 50  0000 C CNN
F 2 "" H 7350 1850 50  0001 C CNN
F 3 "" H 7350 1850 50  0001 C CNN
	1    7350 1850
	1    0    0    -1  
$EndComp
Wire Wire Line
	7350 1850 7350 2250
Wire Wire Line
	7350 2350 8050 2350
Wire Wire Line
	8050 2350 8050 2600
$Comp
L power:GND #PWR0116
U 1 1 629B6C5D
P 8050 2600
F 0 "#PWR0116" H 8050 2350 50  0001 C CNN
F 1 "GND" H 8055 2427 50  0000 C CNN
F 2 "" H 8050 2600 50  0001 C CNN
F 3 "" H 8050 2600 50  0001 C CNN
	1    8050 2600
	1    0    0    -1  
$EndComp
$Comp
L Connector:Conn_01x04_Male J5
U 1 1 629C116C
P 8250 1000
F 0 "J5" H 8222 882 50  0000 R CNN
F 1 "Display" H 8222 973 50  0000 R CNN
F 2 "Connector_PinHeader_2.54mm:PinHeader_1x04_P2.54mm_Vertical" H 8250 1000 50  0001 C CNN
F 3 "~" H 8250 1000 50  0001 C CNN
	1    8250 1000
	-1   0    0    1   
$EndComp
$Comp
L power:GND #PWR0117
U 1 1 629C7D25
P 7950 1100
F 0 "#PWR0117" H 7950 850 50  0001 C CNN
F 1 "GND" H 7955 927 50  0000 C CNN
F 2 "" H 7950 1100 50  0001 C CNN
F 3 "" H 7950 1100 50  0001 C CNN
	1    7950 1100
	1    0    0    -1  
$EndComp
$Comp
L power:+5V #PWR0118
U 1 1 629C805A
P 8050 800
F 0 "#PWR0118" H 8050 650 50  0001 C CNN
F 1 "+5V" H 8065 973 50  0000 C CNN
F 2 "" H 8050 800 50  0001 C CNN
F 3 "" H 8050 800 50  0001 C CNN
	1    8050 800 
	1    0    0    -1  
$EndComp
Text Label 8050 900  2    50   ~ 0
SCL
Text Label 8050 1000 2    50   ~ 0
SDA
Text Label 5750 3350 0    50   ~ 0
SCL
Text Label 5750 3250 0    50   ~ 0
SDA
Wire Wire Line
	5500 3250 5750 3250
Wire Wire Line
	5750 3350 5500 3350
$Comp
L Device:R_POT RV1
U 1 1 629EAE2D
P 1600 2800
F 0 "RV1" H 1530 2846 50  0000 R CNN
F 1 "Fan1_In" H 1530 2755 50  0000 R CNN
F 2 "Potentiometer_THT:Potentiometer_Omeg_PC16BU_Horizontal" H 1600 2800 50  0001 C CNN
F 3 "~" H 1600 2800 50  0001 C CNN
	1    1600 2800
	1    0    0    -1  
$EndComp
$Comp
L Device:R_POT RV2
U 1 1 629EB384
P 1600 3600
F 0 "RV2" H 1530 3646 50  0000 R CNN
F 1 "Fan2_In" H 1530 3555 50  0000 R CNN
F 2 "Potentiometer_THT:Potentiometer_Omeg_PC16BU_Horizontal" H 1600 3600 50  0001 C CNN
F 3 "~" H 1600 3600 50  0001 C CNN
	1    1600 3600
	1    0    0    -1  
$EndComp
$Comp
L power:+5V #PWR0119
U 1 1 629F013D
P 1600 2650
F 0 "#PWR0119" H 1600 2500 50  0001 C CNN
F 1 "+5V" H 1615 2823 50  0000 C CNN
F 2 "" H 1600 2650 50  0001 C CNN
F 3 "" H 1600 2650 50  0001 C CNN
	1    1600 2650
	1    0    0    -1  
$EndComp
$Comp
L power:+5V #PWR0120
U 1 1 629F0457
P 1600 3450
F 0 "#PWR0120" H 1600 3300 50  0001 C CNN
F 1 "+5V" H 1615 3623 50  0000 C CNN
F 2 "" H 1600 3450 50  0001 C CNN
F 3 "" H 1600 3450 50  0001 C CNN
	1    1600 3450
	1    0    0    -1  
$EndComp
$Comp
L power:GND #PWR0121
U 1 1 629F821C
P 1600 3750
F 0 "#PWR0121" H 1600 3500 50  0001 C CNN
F 1 "GND" H 1605 3577 50  0000 C CNN
F 2 "" H 1600 3750 50  0001 C CNN
F 3 "" H 1600 3750 50  0001 C CNN
	1    1600 3750
	1    0    0    -1  
$EndComp
$Comp
L power:GND #PWR0122
U 1 1 62A09C6A
P 1600 2950
F 0 "#PWR0122" H 1600 2700 50  0001 C CNN
F 1 "GND" H 1605 2777 50  0000 C CNN
F 2 "" H 1600 2950 50  0001 C CNN
F 3 "" H 1600 2950 50  0001 C CNN
	1    1600 2950
	1    0    0    -1  
$EndComp
Text Label 1850 2800 0    50   ~ 0
Fan1_IN
Text Label 1850 3600 0    50   ~ 0
Fan2_IN
Wire Wire Line
	1750 2800 1850 2800
Wire Wire Line
	1850 3600 1750 3600
Text Label 5700 2850 0    50   ~ 0
Fan1_IN
Text Label 5700 2950 0    50   ~ 0
Fan2_IN
Wire Wire Line
	5500 2850 5700 2850
Wire Wire Line
	5700 2950 5500 2950
$Comp
L Connector:Screw_Terminal_01x03 J1
U 1 1 62A3290E
P 1550 5000
F 0 "J1" H 1630 5042 50  0000 L CNN
F 1 "Power" H 1630 4951 50  0000 L CNN
F 2 "TerminalBlock:TerminalBlock_Altech_AK300-3_P5.00mm" H 1550 5000 50  0001 C CNN
F 3 "~" H 1550 5000 50  0001 C CNN
	1    1550 5000
	1    0    0    -1  
$EndComp
$Comp
L power:GND #PWR0123
U 1 1 62A33AF4
P 1350 5100
F 0 "#PWR0123" H 1350 4850 50  0001 C CNN
F 1 "GND" H 1355 4927 50  0000 C CNN
F 2 "" H 1350 5100 50  0001 C CNN
F 3 "" H 1350 5100 50  0001 C CNN
	1    1350 5100
	1    0    0    -1  
$EndComp
$Comp
L power:+5V #PWR0124
U 1 1 62A33FB4
P 1100 5000
F 0 "#PWR0124" H 1100 4850 50  0001 C CNN
F 1 "+5V" H 1115 5173 50  0000 C CNN
F 2 "" H 1100 5000 50  0001 C CNN
F 3 "" H 1100 5000 50  0001 C CNN
	1    1100 5000
	1    0    0    -1  
$EndComp
$Comp
L power:+12V #PWR0125
U 1 1 62A3444E
P 1350 4900
F 0 "#PWR0125" H 1350 4750 50  0001 C CNN
F 1 "+12V" H 1365 5073 50  0000 C CNN
F 2 "" H 1350 4900 50  0001 C CNN
F 3 "" H 1350 4900 50  0001 C CNN
	1    1350 4900
	1    0    0    -1  
$EndComp
Wire Wire Line
	1350 5000 1100 5000
Wire Wire Line
	9450 800  9900 800 
Wire Wire Line
	7950 1100 8050 1100
$Comp
L power:PWR_FLAG #FLG0101
U 1 1 62A66BE1
P 3250 850
F 0 "#FLG0101" H 3250 925 50  0001 C CNN
F 1 "PWR_FLAG" H 3250 1023 50  0000 C CNN
F 2 "" H 3250 850 50  0001 C CNN
F 3 "~" H 3250 850 50  0001 C CNN
	1    3250 850 
	1    0    0    -1  
$EndComp
$Comp
L power:PWR_FLAG #FLG0102
U 1 1 62A6A90B
P 4150 850
F 0 "#FLG0102" H 4150 925 50  0001 C CNN
F 1 "PWR_FLAG" H 4150 1023 50  0000 C CNN
F 2 "" H 4150 850 50  0001 C CNN
F 3 "~" H 4150 850 50  0001 C CNN
	1    4150 850 
	1    0    0    -1  
$EndComp
$Comp
L power:GND #PWR0126
U 1 1 62A6AD49
P 3250 850
F 0 "#PWR0126" H 3250 600 50  0001 C CNN
F 1 "GND" H 3255 677 50  0000 C CNN
F 2 "" H 3250 850 50  0001 C CNN
F 3 "" H 3250 850 50  0001 C CNN
	1    3250 850 
	1    0    0    -1  
$EndComp
$Comp
L power:+12V #PWR0127
U 1 1 62A6B3AB
P 4550 850
F 0 "#PWR0127" H 4550 700 50  0001 C CNN
F 1 "+12V" H 4565 1023 50  0000 C CNN
F 2 "" H 4550 850 50  0001 C CNN
F 3 "" H 4550 850 50  0001 C CNN
	1    4550 850 
	1    0    0    -1  
$EndComp
Wire Wire Line
	4150 850  4550 850 
$Comp
L power:PWR_FLAG #FLG0103
U 1 1 62A7280A
P 4900 1400
F 0 "#FLG0103" H 4900 1475 50  0001 C CNN
F 1 "PWR_FLAG" V 4900 1528 50  0000 L CNN
F 2 "" H 4900 1400 50  0001 C CNN
F 3 "~" H 4900 1400 50  0001 C CNN
	1    4900 1400
	0    1    1    0   
$EndComp
Connection ~ 4900 1400
Wire Wire Line
	4900 1400 4900 1250
NoConn ~ 5500 1950
NoConn ~ 5500 3050
NoConn ~ 5500 3150
NoConn ~ 5500 4050
NoConn ~ 5500 4150
NoConn ~ 5500 4250
NoConn ~ 5500 4350
NoConn ~ 4300 1950
$Comp
L Switch:SW_Push SW1
U 1 1 62B17D26
P 10100 3800
F 0 "SW1" H 10100 4085 50  0000 C CNN
F 1 "SW_Push" H 10100 3994 50  0000 C CNN
F 2 "Button_Switch_THT:SW_PUSH_6mm" H 10100 4000 50  0001 C CNN
F 3 "~" H 10100 4000 50  0001 C CNN
	1    10100 3800
	1    0    0    -1  
$EndComp
$Comp
L Mechanical:MountingHole H1
U 1 1 628ED430
P 1500 6150
F 0 "H1" H 1600 6196 50  0000 L CNN
F 1 "MountingHole" H 1600 6105 50  0000 L CNN
F 2 "MountingHole:MountingHole_4mm" H 1500 6150 50  0001 C CNN
F 3 "~" H 1500 6150 50  0001 C CNN
	1    1500 6150
	1    0    0    -1  
$EndComp
$Comp
L Mechanical:MountingHole H2
U 1 1 628EF429
P 1500 6550
F 0 "H2" H 1600 6596 50  0000 L CNN
F 1 "MountingHole" H 1600 6505 50  0000 L CNN
F 2 "MountingHole:MountingHole_4mm" H 1500 6550 50  0001 C CNN
F 3 "~" H 1500 6550 50  0001 C CNN
	1    1500 6550
	1    0    0    -1  
$EndComp
$Comp
L Mechanical:MountingHole H3
U 1 1 628F1BD6
P 1500 6900
F 0 "H3" H 1600 6946 50  0000 L CNN
F 1 "MountingHole" H 1600 6855 50  0000 L CNN
F 2 "MountingHole:MountingHole_4mm" H 1500 6900 50  0001 C CNN
F 3 "~" H 1500 6900 50  0001 C CNN
	1    1500 6900
	1    0    0    -1  
$EndComp
$Comp
L Mechanical:MountingHole H4
U 1 1 628F43DC
P 1500 7300
F 0 "H4" H 1600 7346 50  0000 L CNN
F 1 "MountingHole" H 1600 7255 50  0000 L CNN
F 2 "MountingHole:MountingHole_4mm" H 1500 7300 50  0001 C CNN
F 3 "~" H 1500 7300 50  0001 C CNN
	1    1500 7300
	1    0    0    -1  
$EndComp
$EndSCHEMATC
